{
	"Polska (ftp-stud.hs-esslingen.de)": {
		"uuid": "e2e99b59-c65f-4d73-bfe1-c0afd09a2ca8",
		"uri": "http://ftp-stud.hs-esslingen.de/pub/Mirrors/download.mapsforge.org/maps/europe/poland.map",
		"version": 201712050
	},
	"Radom (ciastek.eu)": {
		"uuid": "b29d5dd2-8eb0-41cf-8148-b587ae0dab62",
		"uri": "radom.map",
		"version": 201712050
	}
}